<svg width="18" height="18" viewBox="0 0 18 18" fill="none" xmlns="http://www.w3.org/2000/svg">
<path d="M9 0C4.0374 0 0 4.0374 0 9C0 13.9626 4.0374 18 9 18C13.9626 18 18 13.9626 18 9C18 4.0374 13.9626 0 9 0ZM7.2009 12.9717L3.8592 9.6372L5.13 8.3628L7.1991 10.4283L11.9637 5.6637L13.2363 6.9363L7.2009 12.9717V12.9717Z" fill="#73BF84"/>
</svg>
