<svg width="18" height="20" viewBox="0 0 18 20" fill="none" xmlns="http://www.w3.org/2000/svg">
<path d="M7.32982 9.99988H2.60032L1.01876 3.00872C1.00863 2.96809 1.00246 2.92637 1.00036 2.88428C0.982758 2.24338 1.61794 1.79894 2.16833 2.09227L17 9.99988L2.16833 17.9075C1.62434 18.1982 0.997158 17.7662 1.00036 17.1368C1.00198 17.0806 1.01087 17.0249 1.02676 16.9715L2.20033 12.6666" stroke="white" stroke-width="2" stroke-linecap="round" stroke-linejoin="round"/>
</svg>
